/* XPM */
static char *magick[] = {
/* columns rows colors chars-per-pixel */
"32 28 2 1",
"  c gray0",
"X s mask c none",
/* pixels */
"XXXXXXXXXXXXXXXXXXXXXXXXXXXXXXXX",
"XXXXXXXXXXXXXXXXXXXXXXXXXXXXXXXX",
"XXXXXXXXXXXXXXXXXXXXXXXXXXXXXXXX",
"XXXXXXXXXXXXX      XXXXXXXXXXXXX",
"XXXXXXXXXXXXX      XXXXXXXXXXXXX",
"XXXXXXXXXXXXX  XX  XXXXXXXXXXXXX",
"XXXXXXXXXXXXX  XX  XXXXXXXXXXXXX",
"XXXXXXXXXXXXX      XXXXXXXXXXXXX",
"XXXXXXXXXXXX        XXXXXXXXXXXX",
"XXXXXXXXXXX  XXXXXX  XXXXXXXXXXX",
"XXXXXXXXXX  XXXXXXXX  XXXXXXXXXX",
"XXXXXXXXX  XXXXXXXXXX  XXXXXXXXX",
"XXXXXXXX  XXXXX XXXXXX  XXXXXXXX",
"XXXXXXX  XXXXX   XXXXXX  XXXXXXX",
"XXXXXX  XXXXX X X XXXXXX  XXXXXX",
"XXXXX  XXXXXXXX XXXXXXXXX  XXXXX",
"XXXX  XXXXXXXXX XXXXXXXXXX  XXXX",
"XXX  XXXXXXXXXX XXXXXXXXXXX  XXX",
"XX  XXXXXXXXXXX XXXXXXXXXXXX  XX",
"X  XXXXXXXXXXXX XXXXXXXXXXXXX  X",
"XXXXXXXXXXXXXXX XXXXXXXXXXXXXXXX",
"XXXXXXXXXXXXXXXXXXXXXXXXXXXXXXXX",
"XXXXXXXXXXXXXXXXXXXXXXXXXXXXXXXX",
"X X X X X X X X X X X X X X X XX",
"XXXXXXXXXXXXXXXXXXXXXXXXXXXXXXXX",
"XXXXXXXXXXXXXXXXXXXXXXXXXXXXXXXX",
"XXXXXXXXXXXXXXXXXXXXXXXXXXXXXXXX",
"XXXXXXXXXXXXXXXXXXXXXXXXXXXXXXXX"
};
